Inserting 20
Inorder: 
20 
Level order: 
20 

Inserting 10
Inorder: 
10 20 
Level order: 
20 10 

Inserting 30
Inorder: 
10 20 30 
Level order: 
20 10 30 

Inserting 15
Inorder: 
10 15 20 30 
Level order: 
20 10 30 15 

Inserting 17
Inorder: 
10 15 17 20 30 
Level order: 
20 15 30 10 17 

Inserting 12
Inorder: 
10 12 15 17 20 30 
Level order: 
20 15 30 10 17 12 

Inserting 35
Inorder: 
10 12 15 17 20 30 35 
Level order: 
20 15 30 10 17 35 12 

Inserting 25
Inorder: 
10 12 15 17 20 25 30 35 
Level order: 
20 15 30 10 17 25 35 12 

Inserting 13
Inorder: 
10 12 13 15 17 20 25 30 35 
Level order: 
20 15 30 12 17 25 35 10 13 

Inserting 9
Inorder: 
9 10 12 13 15 17 20 25 30 35 
Level order: 
15 12 20 10 13 17 30 9 25 35 

Deleting 30
Inorder: 
9 10 12 13 15 17 20 25 35 
Level order: 
15 12 20 10 13 17 35 9 25 

Deleting 20
Inorder: 
9 10 12 13 15 17 25 35 
Level order: 
15 12 25 10 13 17 35 9 

Deleting 25
Inorder: 
9 10 12 13 15 17 35 
Level order: 
15 12 35 10 13 17 9 

Deleting 35
Inorder: 
9 10 12 13 15 17 
Level order: 
15 12 17 10 13 9 

Deleting 17
Inorder: 
9 10 12 13 15 
Level order: 
12 10 15 9 13 

Deleting 12
Inorder: 
9 10 13 15 
Level order: 
13 10 15 9 

Deleting 9
Inorder: 
10 13 15 
Level order: 
13 10 15 

Deleting 13
Inorder: 
10 15 
Level order: 
15 10 

Deleting 10
Inorder: 
15 
Level order: 
15 

Deleting 15
Inorder: 
Tree is empty

Level order: 
Tree is empty


